<?xml version="1.0" encoding="utf-8"?>
<!-- Generator: Adobe Illustrator 24.0.3, SVG Export Plug-In . SVG Version: 6.00 Build 0)  -->
<svg version="1.1" id="Layer_1" xmlns:svgjs="http://svgjs.com/svgjs"
	 xmlns="http://www.w3.org/2000/svg" xmlns:xlink="http://www.w3.org/1999/xlink" x="0px" y="0px" viewBox="0 0 512 512"
	 style="enable-background:new 0 0 512 512;" xml:space="preserve">
<style type="text/css">
	.st0{fill:#FFFFFF;}
</style>
<g>
	<g>
		<g>
			<path class="st0" d="M451.3,115l-0.3-1c21.7-13,39.2-34.4,47-59c-20.3,12.1-44.1,21.3-68,26c-19.2-20.4-44.8-33-75-33
				c-58,0-106,46.9-106,105c0,8.3,1.2,16.4,3,24v1c-86.4-4.9-164.6-48.9-216-112c-9,15.5-14,37.7-14,57c0,30,17.8,70.2,46,89v2
				c-16.8-0.7-34.1-12.3-48-20c0,0.5,0.6,1,0.6,1.5c0,50.9,37.3,94.9,85.4,104.5c-8.4,2.2-20.2,4-29,4c-6.8,0-13.6-1.8-20-3
				c13.4,41.8,52,69,98,69v1c-35.8,27.8-81.2,47-130,47c-8.5,0-19-1-25-2c46.4,29.8,101.7,48,161,48c193.2,0,299-159,299-298v-14
				c20.5-14.8,37.9-34.9,52-56C512,96,475.1,113.5,451.3,115z M420,166c0,30-5.9,61.5-17,91.1c-11.7,31.1-28.5,59.2-50,83.5
				c-33.7,38-94.4,83.4-192,83.4c-2.9,0-5.7,0-8.6-0.1c9.4-5.5,18.5-11.6,27.1-18.2l15.5-12V374v-4v-40l-16.5-0.2
				c-18-0.2-32.5-14.9-32.5-32.9v-32.7l-21.6-4.9c-9.6-2.2-16.4-10.7-16.4-20.5V214v-3l-0.5-20.4l-17.8-11.9
				C82,172.3,75.1,163,70.1,153c52.5,38.3,114.8,61.2,179.6,64.9l42.3,2.4V178v-1v-4.7l-1.1-4.6c-1.3-5.3-1.9-10.2-1.9-14.7
				c0-17.2,6.9-33.5,19.4-45.8C320.9,94.8,337.5,88,355,88c17.7,0,33.1,6.9,45.8,20.4l10.2,10.9l1.2,4.8l0.3,1l7.5,28.9V166z"/>
		</g>
	</g>
</g>
</svg>
